<svg xmlns="http://www.w3.org/2000/svg" width="80" height="80" viewBox="0 0 80 80">
    <g fill="none" fill-rule="evenodd">
        <path fill="#AEB9CB" fill-rule="nonzero" d="M54.153 76.667l-14.311-24.51-.512.288-3.386-5.798c9.78-6.636 12.9-19.706 6.87-30.038-6.332-10.847-20.37-14.57-31.34-8.3C.504 14.568-3.26 28.448 3.08 39.296c6.013 10.314 18.985 14.186 29.672 9.172l3.386 5.807-.511.288 14.311 24.51a1.888 1.888 0 0 0 2.557.68l.97-.55a1.86 1.86 0 0 0 .688-2.537zM32.576 44.45a19.244 19.244 0 0 1-7.249 2.415c-2.469.305-4.947.13-7.372-.506a19.327 19.327 0 0 1-6.64-3.2 19.1 19.1 0 0 1-5.061-5.667 18.74 18.74 0 0 1-2.443-7.168 18.854 18.854 0 0 1 .512-7.289 18.934 18.934 0 0 1 3.236-6.566 19.178 19.178 0 0 1 5.732-5.004 19.244 19.244 0 0 1 7.248-2.416 19.487 19.487 0 0 1 7.372.506 19.25 19.25 0 0 1 6.64 3.2 19.1 19.1 0 0 1 5.061 5.668 18.74 18.74 0 0 1 2.443 7.167 18.854 18.854 0 0 1-.512 7.29 18.934 18.934 0 0 1-3.236 6.565 18.938 18.938 0 0 1-5.731 5.005z"/>
        <path fill="#707A89" fill-rule="nonzero" d="M73.056 0h-19.17c-3.84 0-6.953 3.02-6.953 6.747v7.99c0 3.658 3.006 6.635 6.749 6.738-.045.104-.08.207-.134.311-.675 1.475-1.813 2.649-3.254 3.477 3.094-.12 5.735-1.458 6.891-3.779h15.862c3.841 0 6.953-3.02 6.953-6.747v-7.99C80.009 3.02 76.888 0 73.056 0zm-6.162 6.462c.73 0 1.245.475 1.245 1.148 0 .664-.516 1.113-1.245 1.13-.693 0-1.227-.44-1.227-1.147.01-.673.543-1.13 1.227-1.13zm-6.962 0c.73 0 1.245.475 1.245 1.148 0 .664-.516 1.113-1.245 1.13-.693 0-1.227-.44-1.227-1.147.01-.673.534-1.13 1.227-1.13zm11.532 8.025c-1.929-1.398-4.499-2.408-8.064-2.408-3.512 0-6.037 1.053-8.011 2.408v-1.32c1.636-1.208 4.161-2.511 8.011-2.511 3.885.017 6.41 1.303 8.064 2.51v1.32z"/>
        <g fill="#707A89">
            <path d="M54.418 37.888c0-.583.498-.997 1.2-.997s1.182.414 1.182.997c0 .568-.462.996-1.2.996-.702 0-1.182-.428-1.182-.996zM62.809 37.888c0-.583.498-.997 1.2-.997s1.182.414 1.182.997c0 .568-.462.996-1.2.996-.711 0-1.182-.428-1.182-.996zM71.191 37.888c0-.583.498-.997 1.2-.997s1.182.414 1.182.997c0 .568-.462.996-1.2.996-.702 0-1.182-.428-1.182-.996z"/>
        </g>
        <path fill="#707A89" d="M37.333 47.588l-.809-1.272-3.457 1.83s0 .017.01.043l2.166 3.39c.752-1.447 1.657-3.163 2.09-3.991zM36.267 53.684l3.2-1.665-.293-.44zM50.89 78.835l-13.65-25.15-.474.299-.5.291 13.97 24.789a1.825 1.825 0 0 0 2.03.882c-.929-.318-1.376-1.111-1.376-1.111zM38.066 39.166a19.152 19.152 0 0 1-4.251 3.992s11.024-6.8 8.467-19.002c-1.47-7.042-6.774-12.805-13.859-14.914C19.297 6.52 12.8 11.437 12.8 11.437a19.715 19.715 0 0 1 7.326-2.394c2.495-.302 5-.13 7.45.502 2.451.63 4.697 1.702 6.711 3.17a19.058 19.058 0 0 1 5.116 5.617 18.33 18.33 0 0 1 2.469 7.103c.312 2.42.133 4.848-.517 7.224a18.814 18.814 0 0 1-3.289 6.507z"/>
    </g>
</svg>
